{
  "returnCode":"50000",
  "errorMsg":null,
  "kols":[
    {
      "appKolId": "11",
      "profile":"兰蔻兰蔻LANCOME的鼎力"
    },
    {
      "appKolId": "22",
      "profile":"兰蔻兰蔻LANCOME的鼎力"
    }
  ]
}