{
  "returnCode": "50000",
  "errorMsg": null,
  "event": {
    "id": 123,
    "msgType": "event",
    "sendAs": "wisers kol",
    "title": "推广",
    "snsUser": "BJRND3@admin",
    "createAt": "2016-11-10 14:55:22",
    "attachment": "image.png",
    "content": "event"
  }
}